%YAML 1.1
%TAG !u! tag:unity3d.com,2011:
--- !u!21 &2100000
Material:
  serializedVersion: 6
  m_ObjectHideFlags: 0
  m_PrefabParentObject: {fileID: 0}
  m_PrefabInternal: {fileID: 0}
  m_Name: TransitionMaterial
  m_Shader: {fileID: 4800000, guid: fabca918ca89c6c42b211ec3299e2998, type: 3}
  m_ShaderKeywords: 
  m_LightmapFlags: 5
  m_EnableInstancingVariants: 0
  m_DoubleSidedGI: 0
  m_CustomRenderQueue: -1
  stringTagMap: {}
  disabledShaderPasses: []
  m_SavedProperties:
    serializedVersion: 3
    m_TexEnvs:
    - _MainTex:
        m_Texture: {fileID: 0}
        m_Scale: {x: 1, y: 1}
        m_Offset: {x: 0, y: 0}
    - _TransitionTex:
        m_Texture: {fileID: 2800000, guid: 502d66e25c94c3745b9fb706f0c25ff4, type: 3}
        m_Scale: {x: 1, y: 1}
        m_Offset: {x: 0, y: 0}
    - _TransitionTexture:
        m_Texture: {fileID: 2800000, guid: 0693acd0ad9b3ad4ca58c7abaa0eb436, type: 3}
        m_Scale: {x: 1, y: 1}
        m_Offset: {x: 0, y: 0}
    m_Floats:
    - _Cutoff: 0
    - _Distort: 0
    - _Fade: 1
    m_Colors:
    - _Color: {r: 0, g: 0, b: 0, a: 1}
