%YAML 1.1
%TAG !u! tag:unity3d.com,2011:
--- !u!74 &7400000
AnimationClip:
  m_ObjectHideFlags: 0
  m_PrefabParentObject: {fileID: 0}
  m_PrefabInternal: {fileID: 0}
  m_Name: Intro
  serializedVersion: 6
  m_Legacy: 0
  m_Compressed: 0
  m_UseHighQualityCurve: 1
  m_RotationCurves: []
  m_CompressedRotationCurves: []
  m_EulerCurves: []
  m_PositionCurves: []
  m_ScaleCurves: []
  m_FloatCurves: []
  m_PPtrCurves:
  - curve:
    - time: 0
      value: {fileID: 21300000, guid: d4b72bac61adf4c4c81df83a1a726c57, type: 3}
    - time: 0.5
      value: {fileID: 21300002, guid: d4b72bac61adf4c4c81df83a1a726c57, type: 3}
    - time: 0.5416667
      value: {fileID: 21300004, guid: d4b72bac61adf4c4c81df83a1a726c57, type: 3}
    - time: 0.625
      value: {fileID: 21300006, guid: d4b72bac61adf4c4c81df83a1a726c57, type: 3}
    - time: 0.6666667
      value: {fileID: 21300008, guid: d4b72bac61adf4c4c81df83a1a726c57, type: 3}
    - time: 0.7083333
      value: {fileID: 21300010, guid: d4b72bac61adf4c4c81df83a1a726c57, type: 3}
    - time: 0.75
      value: {fileID: 21300012, guid: d4b72bac61adf4c4c81df83a1a726c57, type: 3}
    - time: 0.7916667
      value: {fileID: 21300014, guid: d4b72bac61adf4c4c81df83a1a726c57, type: 3}
    - time: 0.8333333
      value: {fileID: 21300016, guid: d4b72bac61adf4c4c81df83a1a726c57, type: 3}
    - time: 0.875
      value: {fileID: 21300018, guid: d4b72bac61adf4c4c81df83a1a726c57, type: 3}
    - time: 0.9166667
      value: {fileID: 21300020, guid: d4b72bac61adf4c4c81df83a1a726c57, type: 3}
    - time: 0.9583333
      value: {fileID: 21300022, guid: d4b72bac61adf4c4c81df83a1a726c57, type: 3}
    - time: 1
      value: {fileID: 21300024, guid: d4b72bac61adf4c4c81df83a1a726c57, type: 3}
    - time: 1.0416666
      value: {fileID: 21300026, guid: d4b72bac61adf4c4c81df83a1a726c57, type: 3}
    - time: 1.0833334
      value: {fileID: 21300028, guid: d4b72bac61adf4c4c81df83a1a726c57, type: 3}
    - time: 1.125
      value: {fileID: 21300030, guid: d4b72bac61adf4c4c81df83a1a726c57, type: 3}
    - time: 1.1666666
      value: {fileID: 21300032, guid: d4b72bac61adf4c4c81df83a1a726c57, type: 3}
    - time: 1.2083334
      value: {fileID: 21300034, guid: d4b72bac61adf4c4c81df83a1a726c57, type: 3}
    - time: 1.25
      value: {fileID: 21300036, guid: d4b72bac61adf4c4c81df83a1a726c57, type: 3}
    - time: 2.5
      value: {fileID: 21300038, guid: d4b72bac61adf4c4c81df83a1a726c57, type: 3}
    - time: 2.5416667
      value: {fileID: 21300040, guid: d4b72bac61adf4c4c81df83a1a726c57, type: 3}
    - time: 2.5833333
      value: {fileID: 21300042, guid: d4b72bac61adf4c4c81df83a1a726c57, type: 3}
    - time: 2.625
      value: {fileID: 21300044, guid: d4b72bac61adf4c4c81df83a1a726c57, type: 3}
    - time: 2.6666667
      value: {fileID: 21300046, guid: d4b72bac61adf4c4c81df83a1a726c57, type: 3}
    - time: 2.7083333
      value: {fileID: 21300048, guid: d4b72bac61adf4c4c81df83a1a726c57, type: 3}
    - time: 2.75
      value: {fileID: 21300050, guid: d4b72bac61adf4c4c81df83a1a726c57, type: 3}
    - time: 2.7916667
      value: {fileID: 21300052, guid: d4b72bac61adf4c4c81df83a1a726c57, type: 3}
    - time: 2.8333333
      value: {fileID: 21300054, guid: d4b72bac61adf4c4c81df83a1a726c57, type: 3}
    - time: 2.875
      value: {fileID: 21300056, guid: d4b72bac61adf4c4c81df83a1a726c57, type: 3}
    - time: 2.9166667
      value: {fileID: 21300058, guid: d4b72bac61adf4c4c81df83a1a726c57, type: 3}
    - time: 2.9583333
      value: {fileID: 21300060, guid: d4b72bac61adf4c4c81df83a1a726c57, type: 3}
    - time: 3
      value: {fileID: 21300062, guid: d4b72bac61adf4c4c81df83a1a726c57, type: 3}
    - time: 3.0416667
      value: {fileID: 21300064, guid: d4b72bac61adf4c4c81df83a1a726c57, type: 3}
    - time: 3.0833333
      value: {fileID: 21300066, guid: d4b72bac61adf4c4c81df83a1a726c57, type: 3}
    - time: 3.125
      value: {fileID: 21300068, guid: d4b72bac61adf4c4c81df83a1a726c57, type: 3}
    - time: 3.1666667
      value: {fileID: 21300070, guid: d4b72bac61adf4c4c81df83a1a726c57, type: 3}
    - time: 3.2083333
      value: {fileID: 21300072, guid: d4b72bac61adf4c4c81df83a1a726c57, type: 3}
    - time: 3.25
      value: {fileID: 21300074, guid: d4b72bac61adf4c4c81df83a1a726c57, type: 3}
    - time: 3.2916667
      value: {fileID: 21300076, guid: d4b72bac61adf4c4c81df83a1a726c57, type: 3}
    - time: 3.375
      value: {fileID: 21300078, guid: d4b72bac61adf4c4c81df83a1a726c57, type: 3}
    - time: 3.4166667
      value: {fileID: 21300080, guid: d4b72bac61adf4c4c81df83a1a726c57, type: 3}
    - time: 3.4583333
      value: {fileID: 21300082, guid: d4b72bac61adf4c4c81df83a1a726c57, type: 3}
    - time: 3.5
      value: {fileID: 21300084, guid: d4b72bac61adf4c4c81df83a1a726c57, type: 3}
    - time: 3.5833333
      value: {fileID: 21300086, guid: d4b72bac61adf4c4c81df83a1a726c57, type: 3}
    - time: 3.625
      value: {fileID: 21300088, guid: d4b72bac61adf4c4c81df83a1a726c57, type: 3}
    - time: 3.6666667
      value: {fileID: 21300090, guid: d4b72bac61adf4c4c81df83a1a726c57, type: 3}
    - time: 3.8333333
      value: {fileID: 21300092, guid: d4b72bac61adf4c4c81df83a1a726c57, type: 3}
    - time: 3.875
      value: {fileID: 21300094, guid: d4b72bac61adf4c4c81df83a1a726c57, type: 3}
    - time: 3.9166667
      value: {fileID: 21300096, guid: d4b72bac61adf4c4c81df83a1a726c57, type: 3}
    - time: 5.4166665
      value: {fileID: 21300096, guid: d4b72bac61adf4c4c81df83a1a726c57, type: 3}
    attribute: m_Sprite
    path: 
    classID: 114
    script: {fileID: -765806418, guid: f70555f144d8491a825f0804e09c671c, type: 3}
  m_SampleRate: 24
  m_WrapMode: 0
  m_Bounds:
    m_Center: {x: 0, y: 0, z: 0}
    m_Extent: {x: 0, y: 0, z: 0}
  m_ClipBindingConstant:
    genericBindings:
    - serializedVersion: 2
      path: 0
      attribute: 2015549526
      script: {fileID: -765806418, guid: f70555f144d8491a825f0804e09c671c, type: 3}
      typeID: 114
      customType: 0
      isPPtrCurve: 1
    pptrCurveMapping:
    - {fileID: 21300000, guid: d4b72bac61adf4c4c81df83a1a726c57, type: 3}
    - {fileID: 21300002, guid: d4b72bac61adf4c4c81df83a1a726c57, type: 3}
    - {fileID: 21300004, guid: d4b72bac61adf4c4c81df83a1a726c57, type: 3}
    - {fileID: 21300006, guid: d4b72bac61adf4c4c81df83a1a726c57, type: 3}
    - {fileID: 21300008, guid: d4b72bac61adf4c4c81df83a1a726c57, type: 3}
    - {fileID: 21300010, guid: d4b72bac61adf4c4c81df83a1a726c57, type: 3}
    - {fileID: 21300012, guid: d4b72bac61adf4c4c81df83a1a726c57, type: 3}
    - {fileID: 21300014, guid: d4b72bac61adf4c4c81df83a1a726c57, type: 3}
    - {fileID: 21300016, guid: d4b72bac61adf4c4c81df83a1a726c57, type: 3}
    - {fileID: 21300018, guid: d4b72bac61adf4c4c81df83a1a726c57, type: 3}
    - {fileID: 21300020, guid: d4b72bac61adf4c4c81df83a1a726c57, type: 3}
    - {fileID: 21300022, guid: d4b72bac61adf4c4c81df83a1a726c57, type: 3}
    - {fileID: 21300024, guid: d4b72bac61adf4c4c81df83a1a726c57, type: 3}
    - {fileID: 21300026, guid: d4b72bac61adf4c4c81df83a1a726c57, type: 3}
    - {fileID: 21300028, guid: d4b72bac61adf4c4c81df83a1a726c57, type: 3}
    - {fileID: 21300030, guid: d4b72bac61adf4c4c81df83a1a726c57, type: 3}
    - {fileID: 21300032, guid: d4b72bac61adf4c4c81df83a1a726c57, type: 3}
    - {fileID: 21300034, guid: d4b72bac61adf4c4c81df83a1a726c57, type: 3}
    - {fileID: 21300036, guid: d4b72bac61adf4c4c81df83a1a726c57, type: 3}
    - {fileID: 21300038, guid: d4b72bac61adf4c4c81df83a1a726c57, type: 3}
    - {fileID: 21300040, guid: d4b72bac61adf4c4c81df83a1a726c57, type: 3}
    - {fileID: 21300042, guid: d4b72bac61adf4c4c81df83a1a726c57, type: 3}
    - {fileID: 21300044, guid: d4b72bac61adf4c4c81df83a1a726c57, type: 3}
    - {fileID: 21300046, guid: d4b72bac61adf4c4c81df83a1a726c57, type: 3}
    - {fileID: 21300048, guid: d4b72bac61adf4c4c81df83a1a726c57, type: 3}
    - {fileID: 21300050, guid: d4b72bac61adf4c4c81df83a1a726c57, type: 3}
    - {fileID: 21300052, guid: d4b72bac61adf4c4c81df83a1a726c57, type: 3}
    - {fileID: 21300054, guid: d4b72bac61adf4c4c81df83a1a726c57, type: 3}
    - {fileID: 21300056, guid: d4b72bac61adf4c4c81df83a1a726c57, type: 3}
    - {fileID: 21300058, guid: d4b72bac61adf4c4c81df83a1a726c57, type: 3}
    - {fileID: 21300060, guid: d4b72bac61adf4c4c81df83a1a726c57, type: 3}
    - {fileID: 21300062, guid: d4b72bac61adf4c4c81df83a1a726c57, type: 3}
    - {fileID: 21300064, guid: d4b72bac61adf4c4c81df83a1a726c57, type: 3}
    - {fileID: 21300066, guid: d4b72bac61adf4c4c81df83a1a726c57, type: 3}
    - {fileID: 21300068, guid: d4b72bac61adf4c4c81df83a1a726c57, type: 3}
    - {fileID: 21300070, guid: d4b72bac61adf4c4c81df83a1a726c57, type: 3}
    - {fileID: 21300072, guid: d4b72bac61adf4c4c81df83a1a726c57, type: 3}
    - {fileID: 21300074, guid: d4b72bac61adf4c4c81df83a1a726c57, type: 3}
    - {fileID: 21300076, guid: d4b72bac61adf4c4c81df83a1a726c57, type: 3}
    - {fileID: 21300078, guid: d4b72bac61adf4c4c81df83a1a726c57, type: 3}
    - {fileID: 21300080, guid: d4b72bac61adf4c4c81df83a1a726c57, type: 3}
    - {fileID: 21300082, guid: d4b72bac61adf4c4c81df83a1a726c57, type: 3}
    - {fileID: 21300084, guid: d4b72bac61adf4c4c81df83a1a726c57, type: 3}
    - {fileID: 21300086, guid: d4b72bac61adf4c4c81df83a1a726c57, type: 3}
    - {fileID: 21300088, guid: d4b72bac61adf4c4c81df83a1a726c57, type: 3}
    - {fileID: 21300090, guid: d4b72bac61adf4c4c81df83a1a726c57, type: 3}
    - {fileID: 21300092, guid: d4b72bac61adf4c4c81df83a1a726c57, type: 3}
    - {fileID: 21300094, guid: d4b72bac61adf4c4c81df83a1a726c57, type: 3}
    - {fileID: 21300096, guid: d4b72bac61adf4c4c81df83a1a726c57, type: 3}
    - {fileID: 21300096, guid: d4b72bac61adf4c4c81df83a1a726c57, type: 3}
  m_AnimationClipSettings:
    serializedVersion: 2
    m_AdditiveReferencePoseClip: {fileID: 0}
    m_AdditiveReferencePoseTime: 0
    m_StartTime: 0
    m_StopTime: 5.4583335
    m_OrientationOffsetY: 0
    m_Level: 0
    m_CycleOffset: 0
    m_HasAdditiveReferencePose: 0
    m_LoopTime: 0
    m_LoopBlend: 0
    m_LoopBlendOrientation: 0
    m_LoopBlendPositionY: 0
    m_LoopBlendPositionXZ: 0
    m_KeepOriginalOrientation: 0
    m_KeepOriginalPositionY: 1
    m_KeepOriginalPositionXZ: 0
    m_HeightFromFeet: 0
    m_Mirror: 0
  m_EditorCurves: []
  m_EulerEditorCurves: []
  m_HasGenericRootTransform: 0
  m_HasMotionFloatCurves: 0
  m_GenerateMotionCurves: 0
  m_Events: []
